<svg xmlns="http://www.w3.org/2000/svg" width="32" height="39" viewBox="570 1397 32 39">
  <g transform="translate(571 1398)" fill="none">
    <polygon points="0.6 28.9 22.4 28.9 22.4 1.3 0.6 1.3" fill="#FFF"/>
    <g transform="translate(0 0.641093)">
      <polygon points="0.6 28.3 22.4 28.3 22.4 0.7 0.6 0.7" style="stroke-linejoin:round;stroke-width:2;stroke:#474647"/>
      <path d="M10.5 22.6C10.5 24.4 8.9 25.9 7.1 25.9 5.2 25.9 3.7 24.4 3.7 22.6 3.7 20.7 5.2 19.2 7.1 19.2 8.9 19.2 10.5 20.7 10.5 22.6" fill="#00ABCB"/>
      <path d="M18.9 9.4L4.1 9.4C3.8 9.4 3.5 9.2 3.5 8.8 3.5 8.5 3.8 8.2 4.1 8.2L18.9 8.2C19.2 8.2 19.5 8.5 19.5 8.8 19.5 9.2 19.2 9.4 18.9 9.4" fill="#474647"/>
      <path d="M18.9 12.9L4.1 12.9C3.8 12.9 3.5 12.6 3.5 12.3 3.5 12 3.8 11.7 4.1 11.7L18.9 11.7C19.2 11.7 19.5 12 19.5 12.3 19.5 12.6 19.2 12.9 18.9 12.9" fill="#474647"/>
      <path d="M18.9 16.4L4.1 16.4C3.8 16.4 3.5 16.1 3.5 15.8 3.5 15.5 3.8 15.2 4.1 15.2L18.9 15.2C19.2 15.2 19.5 15.5 19.5 15.8 19.5 16.1 19.2 16.4 18.9 16.4" fill="#474647"/>
      <path d="M18.9 22.8L13.4 22.8" style="stroke-linejoin:round;stroke-width:2;stroke:#474647"/>
      <path d="M14.3 5.1L8.8 5.1C8.4 5.1 8.2 4.8 8.2 4.5 8.2 4.2 8.4 3.9 8.8 3.9L14.3 3.9C14.6 3.9 14.9 4.2 14.9 4.5 14.9 4.8 14.6 5.1 14.3 5.1" fill="#474647"/>
      <polygon points="8 35.7 29.8 35.7 29.8 8.1 8 8.1" fill="#FFF"/>
      <polygon points="8 35.7 29.8 35.7 29.8 8.1 8 8.1" style="stroke-linejoin:round;stroke-width:2;stroke:#474647"/>
      <path d="M17.9 29.9C17.9 31.8 16.3 33.3 14.5 33.3 12.6 33.3 11.1 31.8 11.1 29.9 11.1 28.1 12.6 26.6 14.5 26.6 16.3 26.6 17.9 28.1 17.9 29.9" fill="#00ABCB"/>
      <path d="M26.3 16.8L11.5 16.8C11.2 16.8 10.9 16.6 10.9 16.2 10.9 15.9 11.2 15.6 11.5 15.6L26.3 15.6C26.6 15.6 26.9 15.9 26.9 16.2 26.9 16.6 26.6 16.8 26.3 16.8" fill="#474647"/>
      <path d="M26.3 20.3L11.5 20.3C11.2 20.3 10.9 20 10.9 19.7 10.9 19.4 11.2 19.1 11.5 19.1L26.3 19.1C26.6 19.1 26.9 19.4 26.9 19.7 26.9 20 26.6 20.3 26.3 20.3" fill="#474647"/>
      <path d="M26.3 23.8L11.5 23.8C11.2 23.8 10.9 23.5 10.9 23.2 10.9 22.8 11.2 22.6 11.5 22.6L26.3 22.6C26.6 22.6 26.9 22.8 26.9 23.2 26.9 23.5 26.6 23.8 26.3 23.8" fill="#474647"/>
      <path d="M26.3 30.8L20.8 30.8C20.5 30.8 20.2 30.6 20.2 30.2 20.2 29.9 20.5 29.6 20.8 29.6L26.3 29.6C26.6 29.6 26.9 29.9 26.9 30.2 26.9 30.6 26.6 30.8 26.3 30.8" fill="#474647"/>
      <path d="M21.7 12.5L16.2 12.5C15.8 12.5 15.6 12.2 15.6 11.9 15.6 11.5 15.8 11.3 16.2 11.3L21.7 11.3C22 11.3 22.3 11.5 22.3 11.9 22.3 12.2 22 12.5 21.7 12.5" fill="#474647"/>
    </g>
  </g>
</svg>
